%YAML 1.1
%TAG !u! tag:unity3d.com,2011:
--- !u!114 &11400000
MonoBehaviour:
  m_ObjectHideFlags: 0
  m_CorrespondingSourceObject: {fileID: 0}
  m_PrefabInternal: {fileID: 0}
  m_GameObject: {fileID: 0}
  m_Enabled: 1
  m_EditorHideFlags: 0
  m_Script: {fileID: 11500000, guid: e2b8e3883c78c80409b4ad0c1f6d4ace, type: 3}
  m_Name: SteamVR_Input_ActionSet_platformer_In
  m_EditorClassIdentifier: 
  actionSet: {fileID: 0}
  listDirection: 0
  actions:
  - {fileID: 11400000, guid: 03de324f27784d646a0d820fa159eff1, type: 2}
  - {fileID: 11400000, guid: db2f8f3cda674b245b29e86a807c2839, type: 2}
  Move: {fileID: 11400000, guid: 03de324f27784d646a0d820fa159eff1, type: 2}
  Jump: {fileID: 11400000, guid: db2f8f3cda674b245b29e86a807c2839, type: 2}
