%YAML 1.1
%TAG !u! tag:unity3d.com,2011:
--- !u!78 &1
TagManager:
  serializedVersion: 2
  tags:
  - Feather
  - canvas
  - Kokonut
  - Kokoking
  - projectile
  - FxTemporaire
  - Buff
  - Floor
  - Throwable
  - Collider
  - Fireball
  - Button
  - Ceiling
  - KeyButton
  - Leaderboard
  layers:
  - Default
  - TransparentFX
  - Ignore Raycast
  - 
  - Water
  - UI
  - 
  - 
  - PostProcessing
  - VRUI
  - Player0
  - Player1
  - Player2
  - Player3
  - Player4
  - KokoKing
  - Collider
  - Indicator
  - P1Indicator
  - P2Indicator
  - P3Indicator
  - P4Indicator
  - VRKeyboard
  - 
  - 
  - 
  - 
  - 
  - 
  - 
  - 
  - 
  m_SortingLayers:
  - name: Default
    uniqueID: 0
    locked: 0
